2023-08-20 11:42:11.189 [info] Reading sessions from secret storage...
2023-08-20 11:42:11.248 [info] Got 0 stored sessions
2023-08-20 11:42:11.254 [info] Getting sessions for all scopes...
2023-08-20 11:42:11.254 [info] Got 0 sessions for all scopes...
2023-08-20 11:42:11.255 [info] Getting sessions for the following scopes: email offline_access openid profile
2023-08-20 11:42:11.255 [info] Got 0 sessions for scopes: email offline_access openid profile
