2023-08-28 15:41:39.406 [info] [perf] Render performance baseline is 30ms
2023-08-28 15:43:21.560 [info] [perf] Render performance baseline is 29ms
2023-08-28 15:45:59.745 [info] [perf] Render performance baseline is 31ms
2023-08-28 15:46:14.398 [info] [perf] Render performance baseline is 27ms
2023-08-28 15:46:33.588 [info] [perf] Render performance baseline is 30ms
